…
-----

## `group_by()`

- The `group_by()` *verb* **SPLITS `data.frame`s INTO GROUPS ON A VARIABLE/COLUMN PROPERTY**
- **DEMO IN CONSOLE**
  - It returns a **`tibble`** - a table with extra metadata describing the groups in the table

```R
> group_by(gapminder, continent)
# A tibble: 1,704 x 6
# Groups:   continent [5]
       country  year      pop continent lifeExp gdpPercap
        <fctr> <int>    <dbl>    <fctr>   <dbl>     <dbl>
 1 Afghanistan  1952  8425333      Asia  28.801  779.4453
 2 Afghanistan  1957  9240934      Asia  30.332  820.8530
 3 Afghanistan  1962 10267083      Asia  31.997  853.1007
 4 Afghanistan  1967 11537966      Asia  34.020  836.1971
 5 Afghanistan  1972 13079460      Asia  36.088  739.9811
 6 Afghanistan  1977 14880372      Asia  38.438  786.1134
 7 Afghanistan  1982 12881816      Asia  39.854  978.0114
 8 Afghanistan  1987 13867957      Asia  40.822  852.3959
 9 Afghanistan  1992 16317921      Asia  41.674  649.3414
10 Afghanistan  1997 22227415      Asia  41.763  635.3414
# ... with 1,694 more rows
```
…
